Atlas Data Prep
…
occ_data_final %>% filter_all(any_vars(is.na(.))) # NAs in effort columns

# A tibble: 244,889 × 24
# Groups:   dataset [3]
   cell_grouping cell_label  area cell_long cell_lat Total_area
   <fct>              <dbl> <dbl>     <dbl>    <dbl>      <dbl>
 1 1                     14  24.9     -79.7     42.3    133412.
 2 1                     14  24.9     -79.7     42.3    133412.
 3 1                     14  24.9     -79.7     42.3    133412.
 4 1                     14  24.9     -79.7     42.3    133412.
 5 1                     14  24.9     -79.7     42.3    133412.
 6 1                     14  24.9     -79.7     42.3    133412.
 7 1                     14  24.9     -79.7     42.3    133412.
 8 1                     14  24.9     -79.7     42.3    133412.
 9 1                     14  24.9     -79.7     42.3    133412.
10 1                     14  24.9     -79.7     42.3    133412.
# ℹ 244,879 more rows
# ℹ 18 more variables: Total_Ncells_samp <int>, Total_Ncells_atlas <int>,
#   dataset <chr>, tp <dbl>, verbatim_name <chr>, samp_effort_type <chr>,
#   effort <dbl>, repeated <dbl>, grain <chr>, occupancy_area <dbl>,
#   mean_area <dbl>, occupancy_Ncells <int>, AOO <dbl>,
#   relative_occupancy_area <dbl>, relative_occupancy_Ncells <dbl>,
#   total_SR_atlas <int>, cell_grouping2 <dbl>, scale <dbl>
…
