Atlas Data Clean
…
presence_data_filt <- full_join(presence_data_rep, common_sp)  %>%  
    filter(num_periods_cells == 2 & num_periods_sp == 2) 

Joining with `by = join_by(dataset, verbatim_name)`

5.4.1 Data checks

# ========================== Data checks ======================================= #
presence_data_filt %>% 
  filter(cell_grouping == 1) %>%
  group_by(dataset, tp) %>% 
  rstatix::get_summary_stats(type = "robust")

# A tibble: 48 × 6
   dataset                tp variable              n median    iqr
   <chr>               <dbl> <fct>             <dbl>  <dbl>  <dbl>
 1 Birds_Atlas_Czechia     1 cell_label        65362  351   324   
 2 Birds_Atlas_Czechia     1 cell_lat          65362   49.8   0.9 
 3 Birds_Atlas_Czechia     1 cell_long         65362   15.2   2.5 
 4 Birds_Atlas_Czechia     1 area              65362  134.    2.45
 5 Birds_Atlas_Czechia     1 num_periods_cells 65362    2     0   
 6 Birds_Atlas_Czechia     1 num_periods_sp    65362    2     0   
 7 Birds_Atlas_Czechia     2 cell_label        68508  353   330   
 8 Birds_Atlas_Czechia     2 cell_lat          68508   49.8   0.9 
 9 Birds_Atlas_Czechia     2 cell_long         68508   15.2   2.5 
10 Birds_Atlas_Czechia     2 area              68508  134.    2.45
# ℹ 38 more rows
…
