Predictor Variables Calculations 4
…
[1] "Picoides dorsalis" "Parus minor"      

unmatched_merged <- left_join(unmatched, Tax_red %>% rename("ScientificName" = "AtlasSp"))

Joining with `by = join_by(ScientificName)`

unmatched_merged$match <- 1

## Merge to final table: 
Atlas_merged4 <- rbind(Atlas_merged3 %>% filter(match_type != "manually"), unmatched_merged) %>%
  group_by(AtlasSp) %>%
  mutate()
 Atlas_merged4 %>% filter(match_type == "manually")

# A tibble: 41 × 8
# Groups:   AtlasSp [41]
   AtlasSp    AtlasID match_type match Synonyms TaxID AtlasSp_new ScientificName
   <chr>        <int> <chr>      <dbl> <chr>    <int> <chr>       <chr>         
 1 Bonasa bo…      33 manually       1 <NA>       263 Tetrastes … Tetrastes bon…
 2 Carduelis…      39 manually       1 Acanthi…  7591 Linaria ca… Linaria canna…
 3 Carduelis…      41 manually       1 Chloris…  7566 Chloris ch… Chloris chlor…
 4 Delichon …      68 manually       1 <NA>     10602 Delichon u… Delichon urbi…
 5 Miliaria …     118 manually       1 Emberiz…  7708 Emberiza c… Emberiza cala…
 6 Parus cae…     134 manually       1 <NA>     10352 Cyanistes … Cyanistes cae…
 7 Regulus i…     166 manually       1 <NA>      9427 Regulus ig… Regulus ignic…
 8 Sylvia co…     183 manually       1 <NA>      6963 Curruca co… Curruca commu…
 9 Sylvia cu…     184 manually       1 Sylvia …  9425 Curruca cu… Curruca curru…
10 Sylvia ni…     185 manually       1 <NA>      6964 Curruca ni… Curruca nisor…
# ℹ 31 more rows
…
