Scale_Area_Curves
…
2.1) How does it scale over time?

# Some summary stats:
occ_data_full_df %>% 
  group_by(cell_grouping, tp, scale) %>% 
  get_summary_stats(c(relative_occupancy_area, relative_occupancy_Ncells, 
                      occupancy_Ncells, occupancy_area, AOO,
                      Total_area, Total_Ncells), 
                    type="mean_sd")

# A tibble: 126 × 7
      tp cell_grouping  scale variable                      n      mean       sd
   <int> <fct>          <dbl> <fct>                     <dbl>     <dbl>    <dbl>
 1     1 cell1grid     0.0312 relative_occupancy_area   65400     0.787  2.42e-1
 2     1 cell1grid     0.0312 relative_occupancy_Ncells 65400     0.787  2.43e-1
 3     1 cell1grid     0.0312 occupancy_Ncells          65400   494.     1.52e+2
 4     1 cell1grid     0.0312 occupancy_area            65400 66024.     2.03e+4
 5     1 cell1grid     0.0312 AOO                       65400 66024.     2.03e+4
 6     1 cell1grid     0.0312 Total_area                65400 83900.     0      
 7     1 cell1grid     0.0312 Total_Ncells              65400   628      0      
 8     2 cell1grid     0.0312 relative_occupancy_area   68632     0.8    2.44e-1
 9     2 cell1grid     0.0312 relative_occupancy_Ncells 68632     0.8    2.44e-1
10     2 cell1grid     0.0312 occupancy_Ncells          68632   502.     1.53e+2
# ℹ 116 more rows
…
