Collection_of_general_procedures
…
Code

# create scale column as the average cell_area_km2 per cell_grouping
occ_data_full_df <- occ_data_full_df %>% group_by(cell_grouping, start_year) %>% mutate(Scale_km2 = mean(cell_area_km2))    

occ_data_full_df %>% 
  group_by(cell_grouping, start_year) %>% 
  get_summary_stats(c(relative_occupancy, occupancy_area, Total_Area_per_scale_time1, Total_Area_per_scale_time2, Scale_km2), type="mean_sd")

# A tibble: 80 × 6
   start_year cell_grouping variable                       n       mean       sd
        <dbl> <fct>         <fct>                      <dbl>      <dbl>    <dbl>
 1       1987 cell1grid     relative_occupancy         84967      0.253  1.32e-1
 2       1987 cell1grid     occupancy_area             84967  55548.     2.89e+4
 3       1987 cell1grid     Total_Area_per_scale_time1 84967 219069.     0      
 4       1987 cell1grid     Total_Area_per_scale_time2 84967 305835.     1.53e+5
 5       1987 cell1grid     Scale_km2                  84967     99.2    0      
 6       2000 cell1grid     relative_occupancy         75230      0.252  1.35e-1
 7       2000 cell1grid     occupancy_area             75230  46253.     2.47e+4
 8       2000 cell1grid     Total_Area_per_scale_time1 75230 291279.     1.11e+5
 9       2000 cell1grid     Total_Area_per_scale_time2 75230 183558.     0      
10       2000 cell1grid     Scale_km2                  75230     98.6    0      
# ℹ 70 more rows
…
