Atlas Data Prep
…
common_cells %>% group_by(dataset, cell_grouping, repeated, num_periods_cells) %>% summarise(n = n())

`summarise()` has grouped output by 'dataset', 'cell_grouping', 'repeated'. You
can override using the `.groups` argument.

# A tibble: 41 × 5
# Groups:   dataset, cell_grouping, repeated [41]
   dataset              cell_grouping repeated num_periods_cells     n
   <chr>                <fct>            <dbl>             <int> <int>
 1 Birds_Atlas_Czechia  1                    1                 2   628
 2 Birds_Atlas_Czechia  2                    1                 2   176
 3 Birds_Atlas_Czechia  4                    1                 2    54
 4 Birds_Atlas_Czechia  8                    1                 2    18
 5 Birds_Atlas_Czechia  16                   1                 2     6
 6 Birds_Atlas_Czechia  32                   1                 2     2
 7 Birds_Atlas_Czechia  64                   1                 2     1
 8 Birds_Atlas_New_York 1                    0                 1    15
 9 Birds_Atlas_New_York 1                    1                 2  5320
10 Birds_Atlas_New_York 2                    0                 1     2
# ℹ 31 more rows
…
occ_data_final %>% filter_all(any_vars(is.na(.))) # NAs in effort columns

# A tibble: 244,889 × 23
# Groups:   dataset [3]
   cell_grouping cell_label  area cell_long cell_lat Total_area
   <fct>              <dbl> <dbl>     <dbl>    <dbl>      <dbl>
 1 1                     14  24.9     -79.7     42.3    133412.
 2 1                     14  24.9     -79.7     42.3    133412.
 3 1                     14  24.9     -79.7     42.3    133412.
 4 1                     14  24.9     -79.7     42.3    133412.
 5 1                     14  24.9     -79.7     42.3    133412.
 6 1                     14  24.9     -79.7     42.3    133412.
 7 1                     14  24.9     -79.7     42.3    133412.
 8 1                     14  24.9     -79.7     42.3    133412.
 9 1                     14  24.9     -79.7     42.3    133412.
10 1                     14  24.9     -79.7     42.3    133412.
# ℹ 244,879 more rows
# ℹ 17 more variables: Total_Ncells_samp <int>, Total_Ncells_atlas <int>,
#   dataset <chr>, tp <dbl>, verbatim_name <chr>, samp_effort_type <chr>,
#   effort <dbl>, repeated <dbl>, occupancy_area <dbl>, mean_area <dbl>,
#   occupancy_Ncells <int>, AOO <dbl>, relative_occupancy_area <dbl>,
#   relative_occupancy_Ncells <dbl>, total_SR_atlas <int>,
#   cell_grouping2 <dbl>, scale <dbl>
…
species_data_bigtable %>% 
  group_by(dataset, tp, cell_grouping) %>% 
  select(verbatim_name, dataset, tp, cell_grouping, 
         log_R2_1, Telfer_1_2,
         AOO, relative_occupancy_Ncells, 
         D_AOO_a, m_AOO_a, mean_area) %>%
  rstatix::get_summary_stats(type = "mean_sd")

# A tibble: 434 × 7
   dataset                tp cell_grouping variable            n    mean      sd
   <chr>               <dbl> <fct>         <fct>           <dbl>   <dbl>   <dbl>
 1 Birds_Atlas_Czechia     1 1             log_R2_1          200 1.48e-1 4.32e-1
 2 Birds_Atlas_Czechia     1 1             Telfer_1_2        200 0       1.00e+0
 3 Birds_Atlas_Czechia     1 1             AOO               200 4.37e+4 3.13e+4
 4 Birds_Atlas_Czechia     1 1             relative_occup…   200 5.2 e-1 3.74e-1
 5 Birds_Atlas_Czechia     1 1             D_AOO_a           179 1.35e+0 5.37e-1
 6 Birds_Atlas_Czechia     1 1             m_AOO_a           179 3.27e-1 2.68e-1
 7 Birds_Atlas_Czechia     1 1             mean_area         200 1.34e+2 5.46e-1
 8 Birds_Atlas_Czechia     1 2             log_R2_1          200 1.48e-1 4.32e-1
 9 Birds_Atlas_Czechia     1 2             Telfer_1_2        200 0       1.00e+0
10 Birds_Atlas_Czechia     1 2             AOO               200 5.82e+4 3.28e+4
# ℹ 424 more rows
…
6.2 Negative D?

x <- species_data_bigtable %>% filter(D_AOO_a < 0 & relative_occupancy_area < 1 & cell_grouping == 1)
x %>% group_by(dataset, tp, verbatim_name) #very low occupancy of 1-3 cells

# A tibble: 29 × 23
# Groups:   dataset, tp, verbatim_name [29]
   verbatim_name        dataset              tp cell_grouping   scale Total_area
   <chr>                <chr>             <dbl> <fct>           <dbl>      <dbl>
 1 Anas clypeata        Birds_atlas_Japan     2 1             0.00781    604920.
 2 Anas strepera        Birds_atlas_Japan     1 1             0.00781    604920.
 3 Asio otus            Birds_atlas_Japan     2 1             0.00781    604920.
 4 Aythya valisineria   Birds_Atlas_New_…     1 1             0.00781    133412.
 5 Aythya valisineria   Birds_Atlas_New_…     2 1             0.00781    133412.
 6 Columba trocaz       Birds_atlas_EBBA      2 1             0.00781  13483712.
 7 Columba trocaz       Birds_atlas_EBBA      1 1             0.00781  13483712.
 8 Cyanistes teneriffae Birds_atlas_EBBA      2 1             0.00781  13483712.
 9 Cyanistes teneriffae Birds_atlas_EBBA      1 1             0.00781  13483712.
10 Egretta garzetta     Birds_Atlas_Czec…     1 1             0.0156      90569.
# ℹ 19 more rows
# ℹ 17 more variables: Total_Ncells_atlas <int>, Total_Ncells_samp <int>,
#   occupancy_area <dbl>, occupancy_Ncells <int>, AOO <dbl>,
#   relative_occupancy_area <dbl>, relative_occupancy_Ncells <dbl>,
#   mean_area <dbl>, total_SR_atlas <int>, exclude <dbl>,
#   available_scales <int>, mean_relOcc <dbl>, m_AOO_a <dbl>, b_AOO_a <dbl>,
#   D_AOO_a <dbl>, Telfer_1_2 <dbl>, log_R2_1 <dbl>
…
x %>% group_by(dataset, tp) %>% rstatix::get_summary_stats(type="common")

Warning: There were 3 warnings in `mutate()`.
The first warning was:
ℹ In argument: `ci = abs(stats::qt(alpha/2, .data$n - 1) * .data$se)`.
Caused by warning:
! There was 1 warning in `mutate()`.
ℹ In argument: `ci = abs(stats::qt(alpha/2, .data$n - 1) * .data$se)`.
Caused by warning in `stats::qt()`:
! NaNs wurden erzeugt
ℹ Run `dplyr::last_dplyr_warnings()` to see the 2 remaining warnings.

# A tibble: 133 × 12
   dataset         tp variable     n     min     max  median   iqr    mean    sd
   <chr>        <dbl> <fct>    <dbl>   <dbl>   <dbl>   <dbl> <dbl>   <dbl> <dbl>
 1 Birds_Atlas…     1 scale        1 1.6 e-2 1.6 e-2 1.6 e-2     0 1.6 e-2    NA
 2 Birds_Atlas…     1 Total_a…     1 9.06e+4 9.06e+4 9.06e+4     0 9.06e+4    NA
 3 Birds_Atlas…     1 Total_N…     1 6.78e+2 6.78e+2 6.78e+2     0 6.78e+2    NA
 4 Birds_Atlas…     1 Total_N…     1 6.28e+2 6.28e+2 6.28e+2     0 6.28e+2    NA
 5 Birds_Atlas…     1 occupan…     1 1.36e+2 1.36e+2 1.36e+2     0 1.36e+2    NA
 6 Birds_Atlas…     1 occupan…     1 1   e+0 1   e+0 1   e+0     0 1   e+0    NA
 7 Birds_Atlas…     1 AOO          1 1.36e+2 1.36e+2 1.36e+2     0 1.36e+2    NA
 8 Birds_Atlas…     1 relativ…     1 2   e-3 2   e-3 2   e-3     0 2   e-3    NA
 9 Birds_Atlas…     1 relativ…     1 2   e-3 2   e-3 2   e-3     0 2   e-3    NA
10 Birds_Atlas…     1 mean_ar…     1 1.36e+2 1.36e+2 1.36e+2     0 1.36e+2    NA
# ℹ 123 more rows
# ℹ 2 more variables: se <dbl>, ci <dbl>
…
