Atlas Data Prep
…
# ========================== Data checks ======================================= #
presence_data3 %>% 
  filter(cell_grouping == 1) %>%
  group_by(dataset, tp) %>% 
  rstatix::get_summary_stats(type = "robust")

# A tibble: 56 × 6
   dataset                tp variable              n median    iqr
   <chr>               <dbl> <fct>             <dbl>  <dbl>  <dbl>
 1 Birds_Atlas_Czechia     1 cell_label        65399  351   324   
 2 Birds_Atlas_Czechia     1 cell_lat          65399   49.8   0.9 
 3 Birds_Atlas_Czechia     1 cell_long         65399   15.2   2.5 
 4 Birds_Atlas_Czechia     1 area              65399  134.    2.45
 5 Birds_Atlas_Czechia     1 num_periods_cells 65399    2     0   
 6 Birds_Atlas_Czechia     1 repeated          65399    1     0   
 7 Birds_Atlas_Czechia     1 num_periods_sp    65399    2     0   
 8 Birds_Atlas_Czechia     2 cell_label        68631  353   330   
 9 Birds_Atlas_Czechia     2 cell_lat          68631   49.8   0.9 
10 Birds_Atlas_Czechia     2 cell_long         68631   15.2   2.5 
# ℹ 46 more rows

presence_data3_red %>% 
  filter(cell_grouping == 1) %>%
  group_by(dataset, tp) %>% 
  rstatix::get_summary_stats(
    c(area, Gamma, Alpha, Beta, Mean_Alpha, Mean_Beta),
    type = "robust")

# A tibble: 48 × 6
   dataset                tp variable       n median    iqr
   <chr>               <dbl> <fct>      <dbl>  <dbl>  <dbl>
 1 Birds_Atlas_Czechia     1 area       65362 134.    2.45 
 2 Birds_Atlas_Czechia     1 Gamma      65362 200     0    
 3 Birds_Atlas_Czechia     1 Alpha      65362 109    25    
 4 Birds_Atlas_Czechia     1 Beta       65362   1.84  0.43 
 5 Birds_Atlas_Czechia     1 Mean_Alpha 65362 108.    0    
 6 Birds_Atlas_Czechia     1 Mean_Beta  65362   1.86  0    
 7 Birds_Atlas_Czechia     2 area       68508 134.    2.45 
 8 Birds_Atlas_Czechia     2 Gamma      68508 200     0    
 9 Birds_Atlas_Czechia     2 Alpha      68508 112    27    
10 Birds_Atlas_Czechia     2 Beta       68508   1.79  0.433
# ℹ 38 more rows
…
# save reduced version of this to file:

species_data <- occ_data_final %>% 
  select(dataset, tp, cell_grouping, scale, verbatim_name, 
         Total_area, Total_area_samp, Total_Ncells_atlas, Total_Ncells_samp, 
         occupancy_area, occupancy_Ncells, AOO, relative_occupancy_area, relative_occupancy_Ncells, 
         mean_area, total_SR_atlas_AOOcalc, grain) %>%
  distinct() 

species_data %>% write.csv(paste0(out_path, "csv/Occupancy_table.csv"))

species_data %>% filter(dataset == "Birds_atlas_EBBA")

# A tibble: 8,048 × 17
# Groups:   dataset [1]
   dataset     tp cell_grouping   scale verbatim_name Total_area Total_area_samp
   <chr>    <dbl> <fct>           <dbl> <chr>              <dbl>           <dbl>
 1 Birds_a…     2 1             0.00781 Alectoris ru…  13483712.        9781678.
 2 Birds_a…     1 1             0.00781 Ardea cinerea  13483712.        9781678.
 3 Birds_a…     1 1             0.00781 Asio otus      13483712.        9781678.
 4 Birds_a…     2 1             0.00781 Asio otus      13483712.        9781678.
 5 Birds_a…     1 1             0.00781 Buteo buteo    13483712.        9781678.
 6 Birds_a…     2 1             0.00781 Buteo buteo    13483712.        9781678.
 7 Birds_a…     1 1             0.00781 Calonectris …  13483712.        9781678.
 8 Birds_a…     2 1             0.00781 Calonectris …  13483712.        9781678.
 9 Birds_a…     1 1             0.00781 Carduelis ca…  13483712.        9781678.
10 Birds_a…     2 1             0.00781 Carduelis ca…  13483712.        9781678.
# ℹ 8,038 more rows
# ℹ 10 more variables: Total_Ncells_atlas <int>, Total_Ncells_samp <int>,
#   occupancy_area <dbl>, occupancy_Ncells <int>, AOO <dbl>,
#   relative_occupancy_area <dbl>, relative_occupancy_Ncells <dbl>,
#   mean_area <dbl>, total_SR_atlas_AOOcalc <int>, grain <chr>
…
