SimulatedAtlasData
…
# Let's have a look at the my example data
head(myData)

  taxa OBJECTID time_period
1    b      339  1991-05-30
2    c      630  2002-01-13
3    c      137  2004-10-03
4    b      561  2003-06-30
5    c      474  2003-04-21
6    c      496  1993-04-24

myData$OBJECTID <- as.numeric(myData$OBJECTID)
myData %>% arrange(OBJECTID) %>% group_by(OBJECTID)

# A tibble: 3,000 × 3
# Groups:   OBJECTID [640]
   taxa  OBJECTID time_period
   <chr>    <dbl> <date>     
 1 b            2 2008-06-01 
 2 b            4 2007-10-10 
 3 a            4 1991-10-12 
 4 c            5 2002-04-15 
 5 c            6 2004-06-22 
 6 b            6 1999-05-01 
 7 c            6 2008-06-23 
 8 c            8 2006-06-09 
 9 b            9 2002-11-14 
10 c           10 2002-04-28 
# ℹ 2,990 more rows
…
  taxa OBJECTID time_period tp
1    b      339  1991-05-30  1
2    c      630  2002-01-13  2
3    c      137  2004-10-03  2
4    b      561  2003-06-30  2
5    c      474  2003-04-21  2
6    c      496  1993-04-24  1

myData %>% group_by(OBJECTID, tp) %>% summarise(n=n())

`summarise()` has grouped output by 'OBJECTID'. You can override using the
`.groups` argument.

# A tibble: 1,131 × 3
# Groups:   OBJECTID [640]
   OBJECTID tp        n
      <dbl> <fct> <int>
 1        2 2         1
 2        4 1         1
 3        4 2         1
 4        5 2         1
 5        6 1         1
 6        6 2         2
 7        8 2         1
 8        9 2         1
 9       10 1         1
10       10 2         1
# ℹ 1,121 more rows
…
do.call(rbind,occ_list)

Simple feature collection with 1823 features and 4 fields
Geometry type: POLYGON
Dimension:     XY
Bounding box:  xmin: -912065.7 ymin: -1229672 xmax: -421278.2 ymax: -930614.9
Projected CRS: S-JTSK / Krovak East North
# A tibble: 1,823 × 5
# Groups:   tp [2]
   taxa  tp    occupancy_area relative_occupancy                        geometry
 * <chr> <fct>          <dbl>              <dbl>                   <POLYGON [m]>
 1 b     2             69640.               0.77 ((-733689.7 -930614.9, -722123…
 2 b     2             69640.               0.77 ((-722123.3 -932206.2, -710553…
 3 b     1             74926.               0.83 ((-723627.4 -943229.9, -712032…
 4 b     2             69640.               0.77 ((-700434.2 -946342, -688832.2…
 5 b     1             74926.               0.83 ((-690262.8 -958892.9, -678632…
 6 b     1             74926.               0.83 ((-678632.6 -960387.7, -666999…
 7 b     2             69640.               0.77 ((-759967.2 -949380.2, -748359…
 8 b     2             69640.               0.77 ((-761545.3 -960392.1, -749912…
 9 b     2             69640.               0.77 ((-738276.2 -963673.9, -726636…
10 b     2             69640.               0.77 ((-726636 -965275.8, -714992.1…
# ℹ 1,813 more rows
